%YAML 1.1
%TAG !u! tag:unity3d.com,2011:
--- !u!114 &11400000
MonoBehaviour:
  m_ObjectHideFlags: 0
  m_CorrespondingSourceObject: {fileID: 0}
  m_PrefabInstance: {fileID: 0}
  m_PrefabAsset: {fileID: 0}
  m_GameObject: {fileID: 0}
  m_Enabled: 1
  m_EditorHideFlags: 0
  m_Script: {fileID: 11500000, guid: 95e66c6366d904e98bc83428217d4fd7, type: 3}
  m_Name: Hello_World_Visual_Script_Update
  m_EditorClassIdentifier: 
  _data:
    _json: '{"graph":{"variables":{"Kind":"Flow","collection":{"$content":[],"$version":"A"},"$version":"A"},"controlInputDefinitions":[],"controlOutputDefinitions":[],"valueInputDefinitions":[],"valueOutputDefinitions":[],"title":null,"summary":null,"pan":{"x":-451.0,"y":26.0},"zoom":1.0,"elements":[{"coroutine":false,"defaultValues":{},"position":{"x":-704.0,"y":-94.0},"guid":"dd93226f-7f01-485a-aecb-5d94d1b1fe0b","$version":"A","$type":"Unity.VisualScripting.Update","$id":"9"},{"chainable":false,"member":{"name":"print","parameterTypes":["System.Object"],"targetType":"UnityEngine.MonoBehaviour","targetTypeName":"UnityEngine.MonoBehaviour","$version":"A"},"defaultValues":{},"position":{"x":-351.0,"y":-128.0},"guid":"3bd1f9df-6dc8-4e25-8421-9cc8217d9f75","$version":"A","$type":"Unity.VisualScripting.InvokeMember","$id":"11"},{"type":"System.String","value":{"$content":"Hello
      World!","$type":"System.String"},"defaultValues":{},"position":{"x":-664.0,"y":82.0},"guid":"7d9fa53a-e4bd-4dc7-aeaa-0bf7d5d963ed","$version":"A","$type":"Unity.VisualScripting.Literal","$id":"14"},{"sourceUnit":{"$ref":"9"},"sourceKey":"trigger","destinationUnit":{"$ref":"11"},"destinationKey":"enter","guid":"8ca1e109-77f2-49a2-b472-4729761062e1","$type":"Unity.VisualScripting.ControlConnection"},{"sourceUnit":{"$ref":"14"},"sourceKey":"output","destinationUnit":{"$ref":"11"},"destinationKey":"%message","guid":"9ab15f13-1b38-4c34-8509-a0b737324260","$type":"Unity.VisualScripting.ValueConnection"}],"$version":"A"}}'
    _objectReferences: []
